0.000	0.000	187.809
2.905	-3.323	187.809
5.810	-4.532	187.809
11.620	-5.787	187.809
17.431	-6.368	187.809
23.241	-6.647	187.809
34.861	-6.693	187.809
46.482	-6.368	187.809
58.102	-5.810	187.809
69.723	-5.252	187.809
92.964	-4.183	187.809
116.205	-3.254	187.809
139.446	-2.324	187.809
162.687	-1.511	187.809
185.928	-0.906	187.809
209.169	-0.511	187.809
220.789	-0.372	187.809
232.410	0.000	187.809
